Holt Winters & Fgarch
…
Holt Winters & Fgarch

Adham Suliman

November 29, 2018

Create cmeS data with moving average filling monthw wtih no data.

df <- as.data.frame(read.csv('cmeS.csv'))
(df2 <- df %>%
  group_by(Year, Month, division) %>%
  summarize(Avg_Price = mean(price)))

## # A tibble: 134 x 4
## # Groups:   Year, Month [?]
##     Year Month division Avg_Price
##    <int> <int> <fct>        <dbl>
##  1  2001     1 CME         188000
##  2  2001     2 CME         250000
##  3  2001     3 CME         250000
##  4  2001     5 CME         325000
##  5  2001     6 CME         375000
##  6  2001    11 CME         305000
##  7  2001    12 CME         360000
##  8  2002     1 CME         395000
##  9  2002     2 CME         400000
## 10  2002     4 CME         400000
## # ... with 124 more rows
…
garch_forecast <- ugarchforecast(model, n.ahead=12)
smape(tsx.test,garch_forecast@forecast$sigmaFor)

## [1] 1.620519

Conduct the same analysis done on cmeS as on iomS and immS

Create cmeS data with moving average filling monthw wtih no data.

df.iom <- as.data.frame(read.csv('iomS.csv'))
(df.iom2 <- df.iom %>%
  group_by(Year, Month, division) %>%
  summarize(Avg_Price = mean(price)))

## # A tibble: 147 x 4
## # Groups:   Year, Month [?]
##    Year    Month   division Avg_Price
##    <fct>   <fct>   <fct>        <dbl>
##  1 #VALUE! #VALUE! IOM         356000
##  2 2001    1       IOM         130000
##  3 2001    10      IOM         231250
##  4 2001    11      IOM         243000
##  5 2001    12      IOM         246000
##  6 2001    2       IOM         170000
##  7 2001    3       IOM         242500
##  8 2001    4       IOM         291500
##  9 2001    6       IOM         260000
## 10 2001    7       IOM         260000
## # ... with 137 more rows
…
Create immS data with moving average filling monthw wtih no data.

df.imm <- as.data.frame(read.csv('immS.csv'))
(df.imm2 <- df.imm %>%
  group_by(Year, Month, division) %>%
  summarize(Avg_Price = mean(price)))

## # A tibble: 146 x 4
## # Groups:   Year, Month [?]
##     Year Month division Avg_Price
##    <int> <int> <fct>        <dbl>
##  1  2001     1 IMM        183125 
##  2  2001     2 IMM        225000 
##  3  2001     3 IMM        292500 
##  4  2001     5 IMM        305000 
##  5  2001     6 IMM        355333.
##  6  2001     7 IMM        355000 
##  7  2001     9 IMM        338333.
##  8  2001    10 IMM        316667.
##  9  2001    11 IMM        318333.
## 10  2001    12 IMM        344833.
## # ... with 136 more rows
…
